/Users/vittorio/workspaceProton/maven.1530717273068/graffitiGlobal/graffitiUtils/src/main/java/it/prismatdi/privilegi/PrivilegiStrings.java
/Users/vittorio/workspaceProton/maven.1530717273068/graffitiGlobal/graffitiUtils/src/main/java/it/prismatdi/menu/MenuUtils.java
/Users/vittorio/workspaceProton/maven.1530717273068/graffitiGlobal/graffitiUtils/src/main/java/it/prismatdi/user/UserStringInputValidator.java
/Users/vittorio/workspaceProton/maven.1530717273068/graffitiGlobal/graffitiUtils/src/main/java/it/prismatdi/errors/BinderError.java
/Users/vittorio/workspaceProton/maven.1530717273068/graffitiGlobal/graffitiUtils/src/main/java/it/prismatdi/general/Nazioni.java
/Users/vittorio/workspaceProton/maven.1530717273068/graffitiGlobal/graffitiUtils/src/main/java/it/prismatdi/message/RegistrazioneFormErrors.java
/Users/vittorio/workspaceProton/maven.1530717273068/graffitiGlobal/graffitiUtils/src/main/java/it/prismatdi/message/DataBaseMessages.java
/Users/vittorio/workspaceProton/maven.1530717273068/graffitiGlobal/graffitiUtils/src/main/java/it/prismatdi/general/ChiamateDa.java
/Users/vittorio/workspaceProton/maven.1530717273068/graffitiGlobal/graffitiUtils/src/main/java/it/prismatdi/general/TipoTessuto.java
/Users/vittorio/workspaceProton/maven.1530717273068/graffitiGlobal/graffitiUtils/src/main/java/it/prismatdi/security/SecurityUtils.java
/Users/vittorio/workspaceProton/maven.1530717273068/graffitiGlobal/graffitiUtils/src/main/java/it/prismatdi/privilegi/PrivilegioInputValidator.java
/Users/vittorio/workspaceProton/maven.1530717273068/graffitiGlobal/graffitiUtils/src/main/java/it/prismatdi/general/Bottoni.java
/Users/vittorio/workspaceProton/maven.1530717273068/graffitiGlobal/graffitiUtils/src/main/java/it/prismatdi/general/Titoli.java
/Users/vittorio/workspaceProton/maven.1530717273068/graffitiGlobal/graffitiUtils/src/main/java/it/prismatdi/eventBus/TypeForEventBus.java
/Users/vittorio/workspaceProton/maven.1530717273068/graffitiGlobal/graffitiUtils/src/main/java/it/prismatdi/user/TipoRuolo.java
/Users/vittorio/workspaceProton/maven.1530717273068/graffitiGlobal/graffitiUtils/src/main/java/it/prismatdi/general/Ruoli.java
/Users/vittorio/workspaceProton/maven.1530717273068/graffitiGlobal/graffitiUtils/src/main/java/it/prismatdi/message/Messaggi.java
/Users/vittorio/workspaceProton/maven.1530717273068/graffitiGlobal/graffitiUtils/src/main/java/it/prismatdi/user/UserStringUtil.java
